<svg width="48" height="47" viewBox="0 0 48 47" fill="none" xmlns="http://www.w3.org/2000/svg">
<rect width="48" height="47" fill="#006CE5"/>
<rect x="16" y="18" width="16" height="1" fill="white"/>
<rect x="16" y="23" width="16" height="1" fill="white"/>
<rect x="16" y="28" width="16" height="1" fill="white"/>
</svg>
